Model Input Format:
[Doctor Vector + Month Vector + Weekday Vector + Weather Vector + Events Vector]

MSE - 341.1146516270552
R^2 - 0.497

P-Values:
0.5588626682678025
0.11936712233413647
0.0423643572274242
0.455678628997517
0.22478262840350755
0.06623962052219566
0.09051098366181487
0.691261272668056
0.8193615968541114
0.8285209824310238
0.7576216484620596
0.958629180408938
0.6468659574545801
0.7417097962990854
0.5930039436570395
0.8224609809218906
0.011359406089105325
0.40706392787453827
0.168138699584714
8.425979637787933e-05
0.03774144019499228
0.2006489303307773
0.8087775903258717
0.24593085937862047
0.037285869899247474
0.31753696211755533
0.07705544106329036
0.00475468790698311
0.13494402294615215
0.039099273027682346
0.6005928021873749
0.20321980253290095
0.21380711004954367
0.4787530778395611
0.3353996892368458
0.7157953449833414
0.8022894059969932
0.04131344302974117
0.8169266974097835
0.043686868930922905
0.30118251280173125
0.5791576378804266
0.44720187762256325
0.8520669022714249
0.007487885217874837
0.8190498673757416
0.9333348818540594
0.14026912351667442
0.8779553643388687
0.11735551366600686
0.008017458383685871
0.19777003798496204
0.16565584096277572
0.05098761777853107
0.1074697396448784
0.05158039518781174
0.9581200602523409
0.042084433273201105
0.6546424583563237
0.6356586547933079
0.6380964135178528
0.12539953489668557
0.9107638354369967
0.3846586302546239
0.43071965961807834
0.4539041298630726
0.04147857125614099
0.7563072347542044
0.5975738087947235
0.7944740600522975
0.48985912424319933
0.5443077952274455
0.8549741363948377
0.10283428904275618
0.783647617196565
0.6887022224237467
0.6328508861300333
0.2081740795757151
0.8016809971844313
0.6350403248142134
0.06657911053136323
0.9974002697732668
0.3037134071414836
0.4988851846014275
0.550026626476976
0.3296181828280734
0.14878968121949557
0.3771690615270339
0.7476621119744105
0.2835201568071417
0.1861755283831681
0.06100121385185463
0.015334695913956416
0.024986136574490055
0.011624169140233693
0.03161284952215034
0.042120207033981574
0.058031286145304097
0.11378653443012401
0.36012576491216086
0.07245314640291624
0.08418828656976653
0.07611902336112635
0.11835802592724697
0.06306343922813534
0.06333444144500933
0.029199913614826892
0.48618801842645365
0.426343338509082
0.07535333629385665
0.6616217883619064
0.8915665114131818
0.4835699971488243
0.15536853294761627
0.4973014353000299
0.3211857264226418
0.5169278527021832
0.5269603011743125
0.12630734779141137
0.029309731225087836
0.25459538795490055