Model Input Format
[Doctor Vector + Month Vector + Weekday Vector + Weather Vector + Events Vector]

R^2 - 0.765
MSE - 222.65

P-Values
0.32463147191160924
0.5860418172694447
0.6362012856922816
0.15888306519060047
0.48789833389756376
0.138195440715879
0.9880659472782888
0.08302742117460783
0.6313640433582944
0.7776661218904095
0.23520199838831474
0.14771941423135362
0.14381022662283185
0.5868236443099832
0.013390997559973528
0.34035103771471753
0.5593698364868397
0.18914433882900103
0.10147577130238673
0.34136915047672567
0.1408611102684068
0.00039587457811663903
0.10639068263055189
0.22426983109967108
0.002756906989830936
0.025389482439477355
0.6332454071600792
0.07625778173594208
0.6239313886607741
0.10982395600039062
0.038412731161513794
0.9044554687468886
0.22658378751583524
0.11520764230400449
0.9425700182231469
0.14168951411730268
0.8386467296739942
0.1984253794478894
0.2137785346170613
0.03869670740779058
0.12095965087253975
0.9464999913565787
0.5507485388920981
0.5674639378753579
0.31116758449551274
0.9300694706134829
0.5455436348340337
0.4296809843975089
0.026120328612993696
0.18755387657628328
0.001643020828978409
0.6812009211269217
0.05589699020736742
0.10664769160003391
0.36918483608368713
0.24175588044734755
0.9036048193467464
0.6675607054178918
0.2908487473166434
0.9768111344017738
0.08856878065834002
0.1650925086091021
0.13721122064383157
0.25214130209016794
0.5838940347525294
0.865934731924423
0.9545717957115996
0.9965423375632569
0.9581990246883851
0.027430691127836852
0.06140028648976312
0.06553834039868546
0.042669634196483404
0.10069298170462909
0.048091262381047856
0.30477757762407226
0.5429561136309853
0.019636108582776857
0.15873751298778047
0.2837818655849624
0.9506500162216491
0.012989441447291888
0.01617831855477743
0.2324613942555441
0.13441416337259232
0.13398831674476014
0.7688058935382742
0.9079798262759671
0.004502103333045884
0.0001336700187535335
0.00044120483287420233
6.434111578437438e-05
0.006224180958976346
0.026988546044056653
0.09949681382330665
0.2941825104704057
0.0694315821721591
0.0012465697029700005
1.6400697878388199e-06
2.0011078089400792e-08
5.4661991571059376e-05
0.0011166261472620681
0.0016584732824619199
0.006415579971084731
0.0041364011820326455
0.0005647158355194616
9.482015494362216e-05
0.3504525455202586
0.21822867873608898
0.0512824764521579
0.09582157820252576
0.618355301444526
0.8884692030508227
0.22099371530017078
0.8004071023025299
0.3215492730012793
0.1798307855138228
0.9411409412842502
0.7536768414994055
0.8054505437386739
0.9791021931736388